main.c:189:6:HAL_ADC_ConvCpltCallback	24	static
main.c:242:6:HAL_ADC_ConvHalfCpltCallback	24	static
main.c:293:6:HAL_DAC_ConvCpltCallbackCh1	32	static
main.c:326:6:HAL_DAC_ConvHalfCpltCallbackCh1	24	static
main.c:363:5:main	48	static
main.c:671:6:serial_print	24	static
main.c:683:6:serial_println	24	static
main.c:701:6:record_play	24	static
main.c:786:6:record_start	24	static
main.c:873:6:stop	8	static
main.c:926:6:SystemClock_Config	88	static
main.c:971:13:MX_ADC1_Init	24	static
main.c:1021:13:MX_DAC_Init	16	static
main.c:1059:13:MX_SPI1_Init	8	static
main.c:1097:13:MX_TIM1_Init	32	static
main.c:1143:13:MX_TIM2_Init	32	static
main.c:1188:13:MX_TIM3_Init	32	static
main.c:1233:13:MX_USART2_UART_Init	8	static
main.c:1264:13:MX_DMA_Init	16	static
main.c:1289:13:MX_GPIO_Init	48	static
main.c:1353:6:HAL_GPIO_EXTI_Callback	16	static
main.c:1366:6:HAL_TIM_PeriodElapsedCallback	16	static
main.c:1383:6:Error_Handler	4	static
