stm32f4xx_hal_msp.c:69:6:HAL_MspInit	16	static
stm32f4xx_hal_msp.c:93:6:HAL_ADC_MspInit	48	static
stm32f4xx_hal_msp.c:145:6:HAL_ADC_MspDeInit	16	static
stm32f4xx_hal_msp.c:175:6:HAL_DAC_MspInit	48	static
stm32f4xx_hal_msp.c:227:6:HAL_DAC_MspDeInit	16	static
stm32f4xx_hal_msp.c:257:6:HAL_SPI_MspInit	48	static
stm32f4xx_hal_msp.c:302:6:HAL_SPI_MspDeInit	16	static
stm32f4xx_hal_msp.c:334:6:HAL_TIM_Base_MspInit	32	static
stm32f4xx_hal_msp.c:390:6:HAL_TIM_Base_MspDeInit	16	static
stm32f4xx_hal_msp.c:443:6:HAL_UART_MspInit	48	static
stm32f4xx_hal_msp.c:498:6:HAL_UART_MspDeInit	16	static
